2014-10-03 12:25:48,201 [main] INFO  it.geosolutions.geonetwork.op.GNMetadataSearch:72- Got response with 22 metadata
2014-10-03 12:26:05,389 [main] INFO  it.geosolutions.geonetwork.op.GNMetadataSearch:72- Got response with 37 metadata
2014-10-03 12:26:30,582 [main] INFO  it.geosolutions.geonetwork.op.GNMetadataSearch:72- Got response with 1 metadata
2014-10-03 12:27:08,205 [main] INFO  it.geosolutions.geonetwork.op.GNMetadataSearch:72- Got response with 6299 metadata
2014-10-03 12:27:25,270 [main] INFO  it.geosolutions.geonetwork.op.GNMetadataSearch:72- Got response with 6299 metadata
