﻿1758319.00,-45.52,44.98,4/3/2010 5:29:00,17,89.00,3.00

1758385.00,-45.49,44.97,4/3/2010 6:30:00,17,16.00,2.00

1758398.00,-45.49,45.04,4/3/2010 7:30:00,17,322.00,3.00

1758410.00,-45.45,45.08,4/3/2010 8:31:00,17,40.00,3.00

1758422.00,-45.40,45.12,4/3/2010 9:31:00,17,61.00,3.00

1758435.00,-45.36,45.16,4/3/2010 10:32:00,17,80.00,3.00

1758448.00,-45.32,45.21,4/3/2010 11:32:00,17,46.00,3.00

1758462.00,-45.29,45.25,4/3/2010 12:33:00,17,46.00,0.00

1758473.00,-45.25,45.29,4/3/2010 13:33:00,17,52.00,3.00

1758496.00,-45.26,45.34,4/3/2010 14:33:00,17,318.00,3.00

1758511.00,-45.31,45.38,4/3/2010 15:34:00,17,324.00,3.00

1758540.00,-45.35,45.42,4/3/2010 16:35:00,17,324.00,3.00

1758616.00,-45.39,45.46,4/3/2010 17:35:00,17,320.00,3.00

1758631.00,-45.41,45.51,4/3/2010 18:36:00,17,309.00,3.00

1758657.00,-45.43,45.53,4/3/2010 19:36:00,17,299.00,4.00

1758671.00,-45.24,45.61,4/3/2010 20:36:00,17,42.00,0.00

1758685.00,-45.19,45.63,4/3/2010 21:37:00,17,65.00,11.00

1758700.00,-44.95,45.71,4/3/2010 22:37:00,17,57.00,11.00

1758714.00,-44.73,45.79,4/3/2010 23:38:00,17,51.00,10.00

1758737.00,-44.50,45.88,5/3/2010 0:38:00,17,68.00,10.00

1758760.00,-44.44,45.94,5/3/2010 1:39:00,17,345.00,3.00

1758771.00,-44.43,46.00,5/3/2010 2:39:00,17,317.00,3.00

1758797.00,-44.55,45.96,5/3/2010 3:40:00,17,231.00,12.00

1758819.00,-44.80,45.85,5/3/2010 4:41:00,17,233.00,12.00

1758858.00,-45.03,45.74,5/3/2010 5:41:00,17,239.00,10.00

1758869.00,-45.26,45.63,5/3/2010 6:41:00,17,245.00,11.00

1758884.00,-45.49,45.53,5/3/2010 7:42:00,17,239.00,13.00

1758898.00,-45.73,45.41,5/3/2010 8:42:00,17,237.00,11.00

1758911.00,-45.97,45.29,5/3/2010 9:43:00,17,259.00,6.00

1758925.00,-46.04,45.27,5/3/2010 10:43:00,17,95.00,3.00

1758937.00,-46.00,45.29,5/3/2010 11:43:00,17,129.00,2.00

1758958.00,-45.98,45.29,5/3/2010 12:44:00,17,121.00,3.00

1758973.00,-45.96,45.29,5/3/2010 13:44:00,17,144.00,7.00

1758999.00,-45.94,45.29,5/3/2010 14:45:00,17,130.00,1.00

1759019.00,-45.89,45.27,5/3/2010 15:46:00,17,136.00,2.00

1759031.00,-45.94,45.25,5/3/2010 16:46:00,17,122.00,4.00

1759077.00,-45.88,45.23,5/3/2010 17:46:00,17,133.00,2.00

1759090.00,-45.82,45.22,5/3/2010 18:47:00,17,111.00,2.00

1759119.00,-45.78,45.22,5/3/2010 19:47:00,17,150.00,2.00

1759138.00,-45.72,45.21,5/3/2010 20:48:00,17,102.00,5.00

1759178.00,-45.66,45.26,5/3/2010 21:48:00,17,46.00,5.00

1759198.00,-45.59,45.33,5/3/2010 22:49:00,17,37.00,4.00

1759211.00,-45.53,45.39,5/3/2010 23:49:00,17,77.00,4.00

1759240.00,-45.46,45.44,6/3/2010 0:50:00,17,36.00,6.00

1759251.00,-45.41,45.52,6/3/2010 1:50:00,17,42.00,4.00

1759276.00,-45.36,45.57,6/3/2010 2:51:00,17,49.00,3.00

1759290.00,-45.32,45.61,6/3/2010 3:51:00,17,103.00,3.00

1759319.00,-45.27,45.66,6/3/2010 4:52:00,17,0.00,4.00

1759359.00,-45.20,45.72,6/3/2010 5:53:00,17,345.00,6.00

1759370.00,-45.14,45.77,6/3/2010 6:53:00,17,28.00,4.00

1759399.00,-45.06,45.83,6/3/2010 7:54:00,17,39.00,6.00

1759437.00,-44.99,45.89,6/3/2010 8:54:00,17,7.00,6.00

1759450.00,-44.90,45.95,6/3/2010 9:54:00,17,52.00,5.00

1759462.00,-44.83,46.01,6/3/2010 10:55:00,17,31.00,7.00

1759473.00,-44.74,46.09,6/3/2010 11:55:00,17,30.00,6.00

1759498.00,-44.69,46.15,6/3/2010 12:56:00,17,11.00,3.00

1759518.00,-44.67,46.19,6/3/2010 13:56:00,17,170.00,2.00

1759530.00,-44.67,46.20,6/3/2010 14:56:00,17,74.00,3.00

1759549.00,-44.65,46.27,6/3/2010 15:57:00,17,19.00,4.00

1759565.00,-44.62,46.32,6/3/2010 16:58:00,17,33.00,4.00

1759577.00,-44.56,46.36,6/3/2010 17:58:00,17,55.00,4.00

1759587.00,-44.51,46.39,6/3/2010 18:59:00,17,113.00,3.00

1759598.00,-44.47,46.43,6/3/2010 19:59:00,17,33.00,4.00

1759611.00,-44.43,46.48,6/3/2010 21:00:00,17,32.00,4.00

1759640.00,-44.39,46.53,6/3/2010 22:00:00,17,49.00,5.00

1759651.00,-44.34,46.58,6/3/2010 23:00:00,17,22.00,4.00

1759677.00,-44.28,46.63,7/3/2010 0:01:00,17,26.00,0.00

1759699.00,-44.32,46.52,7/3/2010 1:01:00,17,198.00,12.00

1759719.00,-44.39,46.37,7/3/2010 2:02:00,17,189.00,4.00

1759757.00,-44.42,46.31,7/3/2010 3:02:00,17,212.00,3.00

1759779.00,-44.47,46.27,7/3/2010 4:03:00,17,220.00,4.00

1759800.00,-44.51,46.24,7/3/2010 5:03:00,17,233.00,2.00

1759839.00,-44.61,46.27,7/3/2010 6:04:00,17,293.00,6.00

1759850.00,-44.74,46.31,7/3/2010 7:06:00,17,311.00,5.00

1759859.00,-44.85,46.34,7/3/2010 8:05:00,17,285.00,6.00

1759870.00,-44.96,46.35,7/3/2010 9:05:00,17,296.00,7.00

1759882.00,-45.10,46.31,7/3/2010 10:06:00,17,204.00,9.00

1759892.00,-45.18,46.14,7/3/2010 11:06:00,17,200.00,9.00

1759902.00,-45.26,45.97,7/3/2010 12:07:00,17,206.00,7.00

1759920.00,-45.33,45.81,7/3/2010 13:08:00,17,193.00,10.00

1759931.00,-45.40,45.65,7/3/2010 14:08:00,17,196.00,11.00

1759941.00,-45.46,45.49,7/3/2010 15:08:00,17,188.00,10.00

1759953.00,-45.48,45.42,7/3/2010 16:09:00,17,170.00,3.00

1759961.00,-45.48,45.37,7/3/2010 17:09:00,17,219.00,3.00

1759974.00,-45.48,45.32,7/3/2010 18:12:00,17,182.00,3.00

1759985.00,-45.48,45.27,7/3/2010 19:10:00,17,195.00,2.00

1759998.00,-45.48,45.22,7/3/2010 20:10:00,17,149.00,3.00

1760020.00,-45.48,45.17,7/3/2010 21:11:00,17,146.00,2.00

1760057.00,-45.48,45.07,7/3/2010 23:12:00,17,179.00,2.00

1760070.00,-45.49,45.02,8/3/2010 0:13:00,17,164.00,3.00

1760081.00,-45.52,44.98,8/3/2010 1:13:00,17,210.00,2.00

1760098.00,-45.55,44.93,8/3/2010 2:13:00,17,203.00,3.00

1760137.00,-45.59,44.94,8/3/2010 3:14:00,17,260.00,6.00

1760160.00,-45.50,45.00,8/3/2010 4:15:00,17,8.00,3.00

1760170.00,-45.49,45.05,8/3/2010 5:15:00,17,13.00,3.00

1760218.00,-45.48,45.10,8/3/2010 6:15:00,17,355.00,4.00

1760231.00,-45.48,45.15,8/3/2010 7:16:00,17,1.00,3.00

1760239.00,-45.48,45.20,8/3/2010 8:16:00,17,326.00,3.00

1760252.00,-45.49,45.24,8/3/2010 9:17:00,17,10.00,3.00

1760263.00,-45.50,45.29,8/3/2010 10:17:00,17,339.00,3.00
