unit,geo\\time	2014	2013	2012	2011	2010	2009	2008	2007	2006	2005	2004	2003	2002	2001	2000
EUR_HAB,AT	38500	38100	37600	36800	35200	34300	35100	34000	32200	30800	29600	28500	28000	27400	26600
EUR_HAB,AT1	38700	38500	38100	37600	36300	35600	36200	35100	33500	32000	31100	30100	29900	29200	28500
EUR_HAB,AT11	26500	26100	25500	24300	23400	22500	22500	22100	21000	20300	20200	19200	18700	17800	17300
EUR_HAB,AT12	31400	31200	30700	30100	28700	28000	28900	27900	26100	24900	24300	23000	22500	22100	21800
EUR_HAB,AT13	47300	47300	47100	46800	45700	45000	45500	44100	42700	40800	39600	38900	39100	38300	37100