csquarecode, depthmin, depthmax, depthmean, depthsd, sstanmean, sstansd, sstmnmax, sstmnmin, sstmnrange, sbtanmean, salinitymean, salinitysd, salinitymax, salinitymin, salinitybmean, primprodmean, iceconann, iceconspr, iceconsum, iceconfal, iceconwin, faoaream, eezall, lme, landdist, oceanarea, centerlat, centerlong
"1000:100:1","4760.0","5014.0","4896.0","46.9","27.27","0.38","30.05","23.63","6.42","1.89","34.76","","35.45","34.09","34.826","450","0.0","0.0","0.0","0.0","0.0","34","0","0","594","3091.036","0.25","0.25"
"1000:100:2","4687.0","4991.0","4851.0","47.44","27.27","0.38","30.05","23.63","6.42","1.89","34.76","","35.45","34.09","34.826","471","0.0","0.0","0.0","0.0","0.0","34","0","0","606","3091.036","0.25","0.75"
"1000:100:3","4778.0","4990.0","4890.0","34.23","27.27","0.38","30.05","23.63","6.42","1.89","34.76","","35.45","34.09","34.826","440","0.0","0.0","0.0","0.0","0.0","34","0","0","539","3090.8","0.75","0.25"
