Fis-114525
Fis-124204
Fis-125170
Fis-125879
Fis-126086
Fis-115873
Fis-121668
Fis-123975
Fis-125887
Fis-132488
Fis-134169
Fis-13477
Fis-137847
Fis-138334
URM-2-397
URM-2-94
Fis-147696
ITS-551534
Fis-126092
Fis-126093
Fis-138405
Fis-138460
Fis-139478
Fis-50131
Fis-115865
Fis-132477
Fis-132479
Fis-132808
Fis-134130
Fis-14212
Fis-148251
Fis-148891
ITS-205735
Fis-34086
Fis-132549
Fis-132769
Fis-132907
Fis-134118
SLB-117484
SLB-117490
SLB-93391
URM-Cn-4950
URM-Cn-6122
Fis-10657
Fis-10767
Fis-10768
Fis-10984
Fis-10993
ITS-551572
ITS-551573
ITS-551590
ITS-551678
ITS-551682
Alg-106
Fis-22848
ITS-551530
ITS-551548
ITS-552945
ITS-82334
ITS-82486
Fis-26397
Fis-131855
Fis-132542
Fis-35779
Fis-29279
Fis-29281
Fis-29282
Fis-23004
Fis-23005
SLB-88751
SLB-95278
SLB-96837
URM-2-1394
Fis-114167
Fis-114615
Fis-48603
Fis-131852
Fis-29285
Fis-154010
Fis-23066
Fis-29630
Fis-23347
Fis-22983
AFD-Pul-581
AFD-Pul-623
Alg-11370
Alg-11375
Bra-235704
Fis-10199
Fis-10312
Fis-10407
Fis-11214
Fis-114625
Fis-114739
Fis-115821
Fis-132436
Fis-141410
Fis-143857
Fis-149048
Fis-33182
Fis-49750
Fis-49889
Fis-50194
Fis-50623
Fis-53144
ITS-205733
ITS-205738
URM-2-1278
URM-2-265
URM-Cn-8460
URM-Cn-9873
Fis-160889
Fis-58133
ITS-553014
ITS-556228